{
  "description": "A collection of hate comments from different platforms of social media",
  "hatecomments": [
    {
      "topic": "looks",
      "comment": [
        "Delete your account fatty",
        "You are so ugly and stupid",
        "You'd be prettier if you lost weight",
        "You still have your baby bump"
      ]

    },
    {
      "topic": "personality",
      "comment":[
        "This is why we hate you",
        "We hate you I wish you die fuck you bitch",
        "You are the most hated woman on the planet!\nPlease just disappear for good!",
        "You're a worthless piece of shit you pretend\n to have depression just to be a victim",
        "Evil ass bitch Beyonce you dumb ass sold your soul\n you're going to hell slut"

      ]
    },
    {
      "topic": "race",
      "comment": [
        "ARABS SHUT THE FUCK UP AND KILL",
        "Lets kill jews and kill them for fun",
        "Don't listen to this dumb black b*tch,\n if you're an African-American stay your black ass out of Germany",
        "You silly little black girls are\n going to realize that you are garbage to the world.\n To be used and discarded"
      ]

    },
    {
      "topic": "sexuality",
      "comment": [
        "God create adam and eve not adam and steve",
        "I think whites should stay white,\n blacks stay black and asians stay asian.\n I just believe in racial purity",
        "God doesn't like gays",
        "I fucking hate the fact I live in a generation\n where a guy penetrating another guy is normal"

      ]
    },
    {
      "topic": "content",
    "comment": [
      "Useless video uou fuckass,\n next time save the time you spent uploading\n this and go kill yourself instead",
      "You can't sing anymore\n people just like you because of your\n shitty music and your look"
      ]
    }
  ]
}
